{
    "AWSTemplateFormatVersion": "2010-09-09",
    "Parameters": {
        "S3Bucket": {
            "Type": "String",
            "Default": "theemm-codedeploy",
            "Description": "The package name."
        },
        "S3PackageKey": {
            "Type": "String",
            "Default": "Archive2.zip",
            "Description": "The package name."
        },
        "AmiId": {
            "Type": "String",
            "Default": "ami-87c037e7"
        },
        "UserData": {
            "Type": "String",
            "Default": "<powershell>\r\nNew-Item -Path c:\\temp -ItemType \"directory\" -Force;\r\nRead-S3Object -BucketName aws-codedeploy-us-west-2\/latest -Key codedeploy-agent.msi -File c:\\temp\\codedeploy-agent.msi;\r\nStart-Process -Wait -FilePath c:\\temp\\codedeploy-agent.msi -WindowStyle Hidden;\r\n<\/powershell>"
        },
        "SubNetId": {
            "Type": "String",
            "Default": "subnet-4af1373c"
        },
        "VpcId": {
            "Type": "String",
            "Default": "vpc-9e63c4fa"
        }
    },
    "Resources": {
        "tempsg": {
            "Type": "AWS::EC2::SecurityGroup",
            "Properties": {
                "GroupDescription": "Allow http to client host",
                "VpcId": {
                    "Ref": "VpcId"
                },
                "SecurityGroupIngress": [
                    {
                        "IpProtocol": "tcp",
                        "FromPort": "80",
                        "ToPort": "80",
                        "CidrIp": "0.0.0.0/0"
                    }
                ]
            }
        },
        "templc": {
            "Type": "AWS::AutoScaling::LaunchConfiguration",
            "Properties": {
                "AssociatePublicIpAddress": true,
                "EbsOptimized": false,
                "IamInstanceProfile": "ec2-instance-role-EC2InstanceProfile-17N1NU8ZQXTI0",
                "ImageId": {
                    "Ref": "AmiId"
                },
                "InstanceMonitoring": false,
                "InstanceType": "t2.micro",
                "KeyName": "aws",
                "SecurityGroups": [
                    {
                        "Ref": "tempsg"
                    }
                ],
                "UserData": {
                    "Fn::Base64": {
                        "Ref": "UserData"
                    }
                }
            }
        },
        "tempasg": {
            "Type": "AWS::AutoScaling::AutoScalingGroup",
            "Properties": {
                "AvailabilityZones": [
                    "us-west-2a"
                ],
                "HealthCheckGracePeriod": 420,
                "LaunchConfigurationName": {
                    "Ref": "templc"
                },
                "LoadBalancerNames": [
                    {
                        "Ref": "tempelb"
                    }
                ],
                "DesiredCapacity": "1",
                "MaxSize": "1",
                "MinSize": "1",
                "VPCZoneIdentifier": [
                    {
                        "Ref": "SubNetId"
                    }
                ]
            }
        },
        "tempelb": {
            "Type": "AWS::ElasticLoadBalancing::LoadBalancer",
            "Properties": {
                "Listeners": [
                    {
                        "LoadBalancerPort": "80",
                        "InstancePort": "80",
                        "Protocol": "HTTP"
                    }
                ],
                "HealthCheck": {
                    "Target": "HTTP:80/",
                    "HealthyThreshold": "3",
                    "UnhealthyThreshold": "5",
                    "Interval": "30",
                    "Timeout": "5"
                },
                "SecurityGroups": [
                    {
                        "Ref": "tempsg"
                    }
                ],
                "Subnets": [
                    {
                        "Ref": "SubNetId"
                    }
                ]
            }
        },
        "MyApplication": {
            "Type": "AWS::CodeDeploy::Application",
            "DependsOn": "tempasg"
        },
        "MyDeploymentGroup": {
            "Type": "AWS::CodeDeploy::DeploymentGroup",
            "DependsOn": "MyApplication",
            "Properties": {
                "ApplicationName": {
                    "Ref": "MyApplication"
                },
                "AutoScalingGroups": [
                    {
                        "Ref": "tempasg"
                    }
                ],
                "Deployment": {
                    "IgnoreApplicationStopFailures": "true",
                    "Revision": {
                        "RevisionType": "S3",
                        "S3Location": {
                            "Bucket": {
                                "Ref": "S3Bucket"
                            },
                            "BundleType": "Zip",
                            "Key": {
                                "Ref": "S3PackageKey"
                            }
                        }
                    }
                },
                "ServiceRoleArn": "arn:aws:iam::069574394237:role/ec2-instance-role-CDRole-1EOM75UR1GFZ2"
            }
        }
    }
}